DBD::Pg::st execute failed: ERROR:  syntax error at or near "de"
LINE 4:  dbi.exchange_rate as taux de conversion,
                                   ^ at /home/fcs/cbryrocher/bin/export_invoice_to_excel.pl line 116.
DBD::Pg::st execute failed: ERROR:  syntax error at or near "de"
LINE 4:  dbi.exchange_rate as taux de conversion,
                                   ^ at /home/fcs/cbryrocher/bin/export_invoice_to_excel.pl line 116.
DBD::Pg::st execute failed: ERROR:  syntax error at or near "THEN"
LINE 12:   ELSE dbi.id_currency = '1' THEN dbi.invoice_amount*dbi.exc...
                                      ^ at /home/fcs/cbryrocher/bin/export_invoice_to_excel.pl line 116.
DBD::Pg::st execute failed: ERROR:  syntax error at or near "THEN"
LINE 12:   ELSE dbi.id_currency = '1' THEN dbi.invoice_amount*dbi.exc...
                                      ^ at /home/fcs/cbryrocher/bin/export_invoice_to_excel.pl line 116.
DBD::Pg::st execute failed: ERROR:  syntax error at or near "THEN"
LINE 12:   ELSE dbi.id_currency = '1' THEN dbi.invoice_amount*dbi.exc...
                                      ^ at /home/fcs/cbryrocher/bin/export_invoice_to_excel.pl line 116.
DBD::Pg::st execute failed: ERROR:  missing FROM-clause entry for table "dbi" at /home/fcs/cbryrocher/bin/export_invoice_to_excel.pl line 141.
DBD::Pg::st execute failed: ERROR:  missing FROM-clause entry for table "dbi" at /home/fcs/cbryrocher/bin/export_invoice_to_excel.pl line 141.
DBD::Pg::st execute failed: ERROR:  column db.id_issuer does not exist at /home/fcs/cbryrocher/bin/export_invoice_to_excel.pl line 141.
DBD::Pg::st execute failed: ERROR:  column db.id_issuer does not exist at /home/fcs/cbryrocher/bin/export_invoice_to_excel.pl line 141.
DBD::Pg::st execute failed: ERROR:  syntax error at or near ")"
LINE 43:  AND TO_DATE(dbi.dateheure, 'YYYY-MM-DD') ) > NOW()-INTERVAL...
                                                   ^ at /home/fcs/cbryrocher/bin/export_invoice_to_excel.pl line 142.
